....................
----------------------------------------------------------------------
Ran 20 tests in 0.465s

OK
Name             Stmts   Miss Branch BrPart  Cover   Missing
------------------------------------------------------------
Collatz.py          68      0     42      0   100%
TestCollatz.py      82      0      0      0   100%
------------------------------------------------------------
TOTAL              150      0     42      0   100%
